<?xml version="1.0" encoding="utf-8"?>
<!-- Generator: Adobe Illustrator 19.2.1, SVG Export Plug-In . SVG Version: 6.00 Build 0)  -->
<!DOCTYPE svg PUBLIC "-//W3C//DTD SVG 1.1//EN" "http://www.w3.org/Graphics/SVG/1.1/DTD/svg11.dtd">
<svg version="1.1" id="Layer_1" xmlns="http://www.w3.org/2000/svg" xmlns:xlink="http://www.w3.org/1999/xlink" x="0px" y="0px"
	 viewBox="0 0 56 56" style="enable-background:new 0 0 56 56;" xml:space="preserve">
<style type="text/css">
	.st0{fill:#333333;}
</style>
<path class="st0" d="M18.9,41c0-0.3,0.1-0.5,0.3-0.7L31.5,28L19.2,15.7c-0.2-0.2-0.3-0.4-0.3-0.7s0.1-0.5,0.3-0.7l1.6-1.6
	c0.2-0.2,0.4-0.3,0.7-0.3s0.5,0.1,0.7,0.3l14.5,14.6c0.2,0.2,0.3,0.4,0.3,0.7s-0.1,0.5-0.3,0.7L22.2,43.2c-0.2,0.2-0.4,0.3-0.7,0.3
	s-0.5-0.1-0.7-0.3l-1.6-1.6C19,41.5,18.9,41.2,18.9,41L18.9,41z"/>
</svg>
