<?xml version="1.0" encoding="utf-8"?>
<!-- Generator: Adobe Illustrator 19.2.1, SVG Export Plug-In . SVG Version: 6.00 Build 0)  -->
<!DOCTYPE svg PUBLIC "-//W3C//DTD SVG 1.1//EN" "http://www.w3.org/Graphics/SVG/1.1/DTD/svg11.dtd">
<svg version="1.1" id="Layer_1" xmlns="http://www.w3.org/2000/svg" xmlns:xlink="http://www.w3.org/1999/xlink" x="0px" y="0px"
	 viewBox="0 0 448 448" style="enable-background:new 0 0 448 448;" xml:space="preserve">
<path d="M99,171.7c0-2.2,0.8-4.1,2.5-5.8l12.5-12.4c1.7-1.7,3.6-2.5,5.8-2.5s4.1,0.8,5.8,2.5l98.2,98.2l98.2-98.2
	c1.7-1.7,3.6-2.5,5.8-2.5s4.1,0.8,5.8,2.5l12.5,12.5c1.7,1.7,2.5,3.6,2.5,5.8s-0.8,4.1-2.5,5.8L229.5,294c-1.7,1.7-3.6,2.5-5.8,2.5
	s-4.1-0.8-5.8-2.5L101.5,177.5C99.8,175.8,99,173.9,99,171.7L99,171.7z"/>
</svg>
